…
padj_cutoff <- 0.05

l2fc_cutoff <- FC1.2

RH41_siH3F3A_vs_siScr_reduced_DE_table <- RH41_siH3F3A_vs_siScr_reduced_DE %>%
  data.frame() %>%
  rownames_to_column(var="HGNC") %>%
  as_tibble()

RH41_siH3F3A_vs_siScr_reduced_sig_DEGS <- RH41_siH3F3A_vs_siScr_reduced_DE_table %>%
  filter(padj < padj_cutoff & abs(log2FoldChange) > l2fc_cutoff)

RH41_siH3F3A_vs_siScr_reduced_sig_DEGS
```
# A tibble: 373 × 6
   HGNC    baseMean log2FoldChange  lfcSE   pvalue        padj
   <chr>      <dbl>          <dbl>  <dbl>    <dbl>       <dbl>
 1 ABAT       7188.          0.442 0.0756 2.95e-10 0.000000290
 2 ABHD15      838.         -0.314 0.118  4.86e- 4 0.0177     
 3 ABHD17A    3861.         -0.380 0.112  4.30e- 5 0.00299    
 4 ABI3       1348.         -0.305 0.101  1.68e- 4 0.00847    
 5 ADAM12      649.         -0.368 0.120  1.29e- 4 0.00712    
 6 ADAMTS2     109.         -0.639 0.264  5.62e- 4 0.0192     
 7 ADAMTS7     307.         -0.465 0.161  1.91e- 4 0.00902    
 8 ADGRA1     1359.         -0.301 0.105  2.86e- 4 0.0122     
 9 ADGRA2     1780.         -0.305 0.117  6.10e- 4 0.0204     
10 ADRM1     12486.         -0.279 0.0866 1.07e- 4 0.00622    
# … with 363 more rows
# ℹ Use `print(n = ...)` to see more rows
…
